Chapter 3 General equilibrium trade policy analysis with structural gravity | Solutions Manual for An Advanced Guide to Trade Policy Analysis
…
indexes_final <- exporter_indexes %>% 
  left_join(importer_indexes, by = c("exporter" = "importer")) %>% 
  mutate(
    rgdp_bln = y / (imr_bln^(1 / (1 - sigma))),
    rgdp_full = y_full / (imr_full^(1 / (1 - sigma))),
    change_rgdp_full = (rgdp_bln / rgdp_full - 1) * 100
  ) %>% 
  select(exporter, change_xi_cfl, change_xi_full, 
         change_rgdp_full, change_imr_full, change_omr_full, change_p_i_full)

indexes_final %>% 
  mutate_if(is.numeric, function(x) round(x, 2))

## # A tibble: 69 x 7
##    exporter change_xi_cfl change_xi_full change_rgdp_full change_imr_full change_omr_full change_p_i_full
##    <chr>            <dbl>          <dbl>            <dbl>           <dbl>           <dbl>           <dbl>
##  1 ARG              -0.66          -0.69            -0.01            0.01            0               0   
##  2 AUS              -0.49          -0.51            -0.01            0.02           -0.01            0.01
##  3 AUT              -0.07          -0.1             -0.01            0               0.01           -0.01
##  4 BEL              -0.09          -0.12             0               0               0               0   
##  5 BGR              -0.05          -0.07             0               0               0               0   
##  6 BOL              -0.47          -0.48            -0.02            0.03           -0.01            0.01
##  7 BRA              -0.65          -0.69            -0.01           -0.01            0.02           -0.02
##  8 CAN              35.0           37.5              3.4            -1.48           -2.14            1.84
##  9 CHE              -0.14          -0.17            -0.01            0               0.01           -0.01
## 10 CHL              -0.81          -0.83            -0.03            0.01            0.03           -0.03
## # … with 59 more rows
…
