Chapter 2 Partial equilibrium trade policy analysis with structural gravity | Solutions Manual for An Advanced Guide to Trade Policy Analysis in R
…
2.2.6 Fixed effects solution for the “distance puzzle”

This model requires us to remove the internal distance and same country variables from the last model and include the internal pair variable to account for the intra-national fixed effects.

tp_summary_app_2(
  formula = "trade ~ 0 + log_dist_1986 + log_dist_1990 + log_dist_1994 + 
    log_dist_1998 + log_dist_2002 + log_dist_2006 + cntg + lang + clny + 
    intra_pair | exp_year + imp_year",
  data = ch1_application2,
  method = "ppml"
)

## $tidy_coefficients
## # A tibble: 78 × 5
##    term          estimate std.error statistic p.value
##    <chr>            <dbl>     <dbl>     <dbl>   <dbl>
##  1 log_dist_1986   -0.91      0.033   -27.7     0    
##  2 log_dist_1990   -0.879     0.033   -27.0     0    
##  3 log_dist_1994   -0.86      0.032   -26.6     0    
##  4 log_dist_1998   -0.833     0.032   -25.9     0    
##  5 log_dist_2002   -0.829     0.033   -25.5     0    
##  6 log_dist_2006   -0.811     0.033   -24.9     0    
##  7 cntg             0.442     0.083     5.33    0    
##  8 lang             0.241     0.077     3.11    0.002
##  9 clny            -0.22      0.118    -1.86    0.063
## 10 intra_pairARG    0.384     0.577     0.666   0.505
## # … with 68 more rows
## # ℹ Use `print(n = ...)` to see more rows
## 
## $nobs
## [1] 28566
## 
## $pct_chg_log_dist
## [1] -10.931
## 
…
